HW2-exploration.qmd
…
    # Calculate the number of plants in each state
    num_plants = n()
  )

# View the summary
print(state_summary)

# A tibble: 52 × 5
   `Plant state abbreviation` mean_CO2_emissions mean_SO2_emissions
   <chr>                                   <dbl>              <dbl>
 1 AK                                     27044.             13.5  
 2 AL                                   1231753.            161.   
 3 AR                                   1121060.            968.   
 4 AZ                                   1096944.            201.   
 5 CA                                    122162.              3.93 
 6 CO                                    708611.            229.   
 7 CT                                    206430.             27.5  
 8 DC                                      8467.              0.589
 9 DE                                    119846.             12.5  
10 FL                                    958041.            154.   
# ℹ 42 more rows
# ℹ 2 more variables: mean_NOx_emissions <dbl>, num_plants <int>
…
